\relax 
\providecommand\hyper@newdestlabel[2]{}
\providecommand\HyperFirstAtBeginDocument{\AtBeginDocument}
\HyperFirstAtBeginDocument{\ifx\hyper@anchor\@undefined
\global\let\oldcontentsline\contentsline
\gdef\contentsline#1#2#3#4{\oldcontentsline{#1}{#2}{#3}}
\global\let\oldnewlabel\newlabel
\gdef\newlabel#1#2{\newlabelxx{#1}#2}
\gdef\newlabelxx#1#2#3#4#5#6{\oldnewlabel{#1}{{#2}{#3}}}
\AtEndDocument{\ifx\hyper@anchor\@undefined
\let\contentsline\oldcontentsline
\let\newlabel\oldnewlabel
\fi}
\fi}
\global\let\hyper@last\relax 
\gdef\HyperFirstAtBeginDocument#1{#1}
\providecommand\HyField@AuxAddToFields[1]{}
\providecommand\HyField@AuxAddToCoFields[2]{}
\citation{Gunzburger_2000}
\citation{Rallison_1984}
\citation{Taylor_1934}
\citation{Taylor_1932}
\@writefile{toc}{\contentsline {section}{\numberline {1}Introduction}{0}{section.1}}
\providecommand*\caption@xref[2]{\@setref\relax\@undefined{#1}}
\newlabel{fig:cp_rank4}{{1a}{0}{Subfigure 1a}{subfigure.1.1}{}}
\newlabel{sub@fig:cp_rank4}{{(a)}{a}{Subfigure 1a\relax }{subfigure.1.1}{}}
\newlabel{fig:cp_rank9}{{1b}{0}{Subfigure 1b}{subfigure.1.2}{}}
\newlabel{sub@fig:cp_rank9}{{(b)}{b}{Subfigure 1b\relax }{subfigure.1.2}{}}
\@writefile{lof}{\contentsline {figure}{\numberline {1}{\ignorespaces Deformation of a drop under the influence of (a) extensional flow, and (b) electric field.\relax }}{0}{figure.caption.1}}
\newlabel{fig:drop_def}{{1}{0}{Deformation of a drop under the influence of (a) extensional flow, and (b) electric field.\relax }{figure.caption.1}{}}
\@writefile{lof}{\contentsline {subfigure}{\numberline{(a)}{\ignorespaces {}}}{0}{subfigure.1.1}}
\@writefile{lof}{\contentsline {subfigure}{\numberline{(b)}{\ignorespaces {}}}{0}{subfigure.1.2}}
\citation{Gallery}
\citation{Gallery}
\citation{Schmid_2010}
\@writefile{lof}{\contentsline {figure}{\numberline {2}{\ignorespaces X-ray image of a liquid jet interacting with the air. This image was taken during an experiment at Argonne National Lab by the Ted Heindel group at Iowa State University \cite  {Gallery}.\relax }}{1}{figure.caption.2}}
\newlabel{fig:spray_xray}{{2}{1}{X-ray image of a liquid jet interacting with the air. This image was taken during an experiment at Argonne National Lab by the Ted Heindel group at Iowa State University \cite {Gallery}.\relax }{figure.caption.2}{}}
\citation{Stone_1994}
\citation{Acrivos_1983}
\citation{Melcher_1969}
\@writefile{toc}{\contentsline {section}{\numberline {2}On the optimal control of axisymmetric drop deformation using continuous adjoint method}{2}{section.2}}
\newlabel{sec:first}{{2}{2}{On the optimal control of axisymmetric drop deformation using continuous adjoint method}{section.2}{}}
\@writefile{toc}{\contentsline {subsection}{\numberline {2.1}Governing equations and boundary conditions}{2}{subsection.2.1}}
\newlabel{St_Eq}{{3}{2}{Governing equations and boundary conditions}{equation.2.2}{}}
\newlabel{NDBC_EP}{{4}{2}{Governing equations and boundary conditions}{equation.2.4}{}}
\newlabel{GE_EF}{{5}{2}{Governing equations and boundary conditions}{equation.2.5}{}}
\newlabel{stress_balance_ef}{{7}{3}{Governing equations and boundary conditions}{equation.2.6}{}}
\newlabel{elec_traction}{{8}{3}{Governing equations and boundary conditions}{equation.2.8}{}}
\@writefile{toc}{\contentsline {subsection}{\numberline {2.2}Continuous adjoint theory}{3}{subsection.2.2}}
\newlabel{defn_var_J}{{10}{3}{Continuous adjoint theory}{equation.2.10}{}}
\@writefile{toc}{\contentsline {subsubsection}{\numberline {2.2.1}Case\nobreakspace  {}1: Extensional flow problem}{3}{subsubsection.2.2.1}}
\newlabel{Lagrangian_ext}{{12}{4}{Case~1: Extensional flow problem}{equation.2.11}{}}
\newlabel{adj_stokes}{{15}{4}{Case~1: Extensional flow problem}{equation.2.14}{}}
\newlabel{equal_adj_stress}{{17}{4}{Case~1: Extensional flow problem}{equation.2.16}{}}
\newlabel{adj_traction_flow}{{18}{4}{Case~1: Extensional flow problem}{equation.2.18}{}}
\newlabel{grad_ext_p}{{19}{4}{Case~1: Extensional flow problem}{equation.2.19}{}}
\citation{Pozrikidis_1992}
\citation{Lac_2007}
\@writefile{toc}{\contentsline {subsubsection}{\numberline {2.2.2}Case\nobreakspace  {}2: Electrohydrodynamics problem}{5}{subsubsection.2.2.2}}
\newlabel{Lagr_total_EF}{{21}{5}{Case~2: Electrohydrodynamics problem}{equation.2.20}{}}
\newlabel{SB_electric}{{22}{5}{Case~2: Electrohydrodynamics problem}{equation.2.22}{}}
\newlabel{adj_traction_electric}{{23}{5}{Case~2: Electrohydrodynamics problem}{equation.2.23}{}}
\newlabel{grad_elec_p}{{24}{5}{Case~2: Electrohydrodynamics problem}{equation.2.24}{}}
\citation{Stone_1989}
\citation{Biesel_1973}
\citation{Stone_1989,Rallison_1978}
\citation{Biesel_1973}
\citation{Taylor_1932}
\citation{Biesel_1973}
\citation{Stone_1989}
\citation{Biesel_1973}
\citation{Stone_1989}
\citation{Biesel_1973}
\citation{Stone_1989}
\citation{Biesel_1973}
\@writefile{toc}{\contentsline {subsection}{\numberline {2.3}Numerical implementation}{6}{subsection.2.3}}
\newlabel{kc_ext_p}{{25}{6}{Numerical implementation}{equation.2.25}{}}
\@writefile{toc}{\contentsline {subsection}{\numberline {2.4}Results and Discussion}{6}{subsection.2.4}}
\@writefile{toc}{\contentsline {subsubsection}{\numberline {2.4.1}Case\nobreakspace  {}1: Extensional flow problem}{6}{subsubsection.2.4.1}}
\newlabel{fig:cp_rank4}{{3a}{7}{Subfigure 3a}{subfigure.3.1}{}}
\newlabel{sub@fig:cp_rank4}{{(a)}{a}{Subfigure 3a\relax }{subfigure.3.1}{}}
\newlabel{fig:cp_rank9}{{3b}{7}{Subfigure 3b}{subfigure.3.2}{}}
\newlabel{sub@fig:cp_rank9}{{(b)}{b}{Subfigure 3b\relax }{subfigure.3.2}{}}
\newlabel{fig:cp_rank9}{{3c}{7}{Subfigure 3c}{subfigure.3.3}{}}
\newlabel{sub@fig:cp_rank9}{{(c)}{c}{Subfigure 3c\relax }{subfigure.3.3}{}}
\@writefile{lof}{\contentsline {figure}{\numberline {3}{\ignorespaces Drop deformation $D$ vs. capillary number $Ca$ for viscosity ratio (a) $\lambda =0.1$, (b) $\lambda =1$ and (c) $\lambda =10$. For all three cases, $N=60$. Symbol $\triangle $ is for the current work and the solid line is from the numerical result of Stone and Leal\nobreakspace  {}\cite  {Stone_1989}. The dot dashed and dashed lines are the $O(Ca)$ and $O(Ca^2)$ small deformation theories\nobreakspace  {}\cite  {Biesel_1973}, and the circles in Fig.\nobreakspace  {}(b) are the unpublished results of Duffy and Blundell.\relax }}{7}{figure.caption.3}}
\newlabel{fig:DvsC_Ext_lambdas}{{3}{7}{Drop deformation $D$ vs. capillary number $Ca$ for viscosity ratio (a) $\lambda =0.1$, (b) $\lambda =1$ and (c) $\lambda =10$. For all three cases, $N=60$. Symbol $\triangle $ is for the current work and the solid line is from the numerical result of Stone and Leal~\cite {Stone_1989}. The dot dashed and dashed lines are the $O(Ca)$ and $O(Ca^2)$ small deformation theories~\cite {Biesel_1973}, and the circles in Fig.~(b) are the unpublished results of Duffy and Blundell.\relax }{figure.caption.3}{}}
\@writefile{lof}{\contentsline {subfigure}{\numberline{(a)}{\ignorespaces {}}}{7}{subfigure.3.1}}
\@writefile{lof}{\contentsline {subfigure}{\numberline{(b)}{\ignorespaces {}}}{7}{subfigure.3.2}}
\@writefile{lof}{\contentsline {subfigure}{\numberline{(c)}{\ignorespaces {}}}{7}{subfigure.3.3}}
\citation{Lac_2007}
\citation{Lac_2007}
\citation{Taylor_1966}
\citation{Ajayi_1978}
\citation{Lac_2007}
\citation{Taylor_1966}
\citation{Ajayi_1978}
\newlabel{fig:cp_rank4}{{4a}{8}{Subfigure 4a}{subfigure.4.1}{}}
\newlabel{sub@fig:cp_rank4}{{(a)}{a}{Subfigure 4a\relax }{subfigure.4.1}{}}
\newlabel{fig:cp_rank9}{{4b}{8}{Subfigure 4b}{subfigure.4.2}{}}
\newlabel{sub@fig:cp_rank9}{{(b)}{b}{Subfigure 4b\relax }{subfigure.4.2}{}}
\@writefile{lof}{\contentsline {figure}{\numberline {4}{\ignorespaces Normalized cost function vs. capillary number $Ca$ for initial (a) $Ca=0.04$ and (b) $Ca=0.08$. In both cases, the optimal capillary number $Ca_d=0.06$, $\lambda =1$, $\delta = 0.01$ and $N=60$.\relax }}{8}{figure.caption.4}}
\newlabel{fig:cost_fun}{{4}{8}{Normalized cost function vs. capillary number $Ca$ for initial (a) $Ca=0.04$ and (b) $Ca=0.08$. In both cases, the optimal capillary number $Ca_d=0.06$, $\lambda =1$, $\delta = 0.01$ and $N=60$.\relax }{figure.caption.4}{}}
\@writefile{lof}{\contentsline {subfigure}{\numberline{(a)}{\ignorespaces {}}}{8}{subfigure.4.1}}
\@writefile{lof}{\contentsline {subfigure}{\numberline{(b)}{\ignorespaces {}}}{8}{subfigure.4.2}}
\newlabel{fig:cp_rank4}{{5a}{8}{Subfigure 5a}{subfigure.5.1}{}}
\newlabel{sub@fig:cp_rank4}{{(a)}{a}{Subfigure 5a\relax }{subfigure.5.1}{}}
\newlabel{fig:cp_rank9}{{5b}{8}{Subfigure 5b}{subfigure.5.2}{}}
\newlabel{sub@fig:cp_rank9}{{(b)}{b}{Subfigure 5b\relax }{subfigure.5.2}{}}
\@writefile{lof}{\contentsline {figure}{\numberline {5}{\ignorespaces Comparison of the adjoint and finite difference gradients (G) for approaches from both sides of the optimal capillary number, $Ca_d=0.06$ and $N=60$.\relax }}{8}{figure.caption.5}}
\newlabel{fig:grad_comp}{{5}{8}{Comparison of the adjoint and finite difference gradients (G) for approaches from both sides of the optimal capillary number, $Ca_d=0.06$ and $N=60$.\relax }{figure.caption.5}{}}
\@writefile{lof}{\contentsline {subfigure}{\numberline{(a)}{\ignorespaces {}}}{8}{subfigure.5.1}}
\@writefile{lof}{\contentsline {subfigure}{\numberline{(b)}{\ignorespaces {}}}{8}{subfigure.5.2}}
\@writefile{toc}{\contentsline {subsubsection}{\numberline {2.4.2}Case\nobreakspace  {}2: Electrohydrodynamics problem}{8}{subsubsection.2.4.2}}
\newlabel{fig:cp_rank4}{{6a}{9}{Subfigure 6a}{subfigure.6.1}{}}
\newlabel{sub@fig:cp_rank4}{{(a)}{a}{Subfigure 6a\relax }{subfigure.6.1}{}}
\newlabel{fig:cp_rank9}{{6b}{9}{Subfigure 6b}{subfigure.6.2}{}}
\newlabel{sub@fig:cp_rank9}{{(b)}{b}{Subfigure 6b\relax }{subfigure.6.2}{}}
\@writefile{lof}{\contentsline {figure}{\numberline {6}{\ignorespaces Comparison of (a) normalized error vs. equilibrium criterion $(\delta =\textbf  {u} \cdot \textbf  {n})$ for $Ca=0.08$, and $N=60$, $80$ and $100$ marker points; and (b) comparison of normalized error vs $Ca$ for $\lambda =0.1,1$ and $10$, and $\delta =0.01$.\relax }}{9}{figure.caption.6}}
\newlabel{fig:norm_error}{{6}{9}{Comparison of (a) normalized error vs. equilibrium criterion $(\delta =\textbf {u} \cdot \textbf {n})$ for $Ca=0.08$, and $N=60$, $80$ and $100$ marker points; and (b) comparison of normalized error vs $Ca$ for $\lambda =0.1,1$ and $10$, and $\delta =0.01$.\relax }{figure.caption.6}{}}
\@writefile{lof}{\contentsline {subfigure}{\numberline{(a)}{\ignorespaces {}}}{9}{subfigure.6.1}}
\@writefile{lof}{\contentsline {subfigure}{\numberline{(b)}{\ignorespaces {}}}{9}{subfigure.6.2}}
\newlabel{fig:cp_rank4}{{7a}{9}{Subfigure 7a}{subfigure.7.1}{}}
\newlabel{sub@fig:cp_rank4}{{(a)}{a}{Subfigure 7a\relax }{subfigure.7.1}{}}
\newlabel{fig:cp_rank9}{{7b}{9}{Subfigure 7b}{subfigure.7.2}{}}
\newlabel{sub@fig:cp_rank9}{{(b)}{b}{Subfigure 7b\relax }{subfigure.7.2}{}}
\@writefile{lof}{\contentsline {figure}{\numberline {7}{\ignorespaces Drop deformation $D$ vs. electric capillary number $Ca_E$ for (a) prolate and (b) oblate cases on $N=50$ grid. The viscosity ratio $\lambda =1$, resistivity ratio $R=0.1$ and conductivity ratio $Q=1.37$. The $\triangle $ symbol represents the present numerical simulation and the solid line is from the numerical result of\nobreakspace  {}\cite  {Lac_2007}. The dot-dashed line and dashed lines correspond to the linear theory of \cite  {Taylor_1966} and second-order correction by\nobreakspace  {}\cite  {Ajayi_1978}, respectively.\relax }}{9}{figure.caption.7}}
\newlabel{fig:DvsC_PO}{{7}{9}{Drop deformation $D$ vs. electric capillary number $Ca_E$ for (a) prolate and (b) oblate cases on $N=50$ grid. The viscosity ratio $\lambda =1$, resistivity ratio $R=0.1$ and conductivity ratio $Q=1.37$. The $\triangle $ symbol represents the present numerical simulation and the solid line is from the numerical result of~\cite {Lac_2007}. The dot-dashed line and dashed lines correspond to the linear theory of \cite {Taylor_1966} and second-order correction by~\cite {Ajayi_1978}, respectively.\relax }{figure.caption.7}{}}
\@writefile{lof}{\contentsline {subfigure}{\numberline{(a)}{\ignorespaces {}}}{9}{subfigure.7.1}}
\@writefile{lof}{\contentsline {subfigure}{\numberline{(b)}{\ignorespaces {}}}{9}{subfigure.7.2}}
\newlabel{fig:cp_rank4}{{\caption@xref {fig:cp_rank4}{ on input line 1369}}{10}{Case~2: Electrohydrodynamics problem}{figure.caption.8}{}}
\@writefile{lof}{\contentsline {figure}{\numberline {8}{\ignorespaces Comparison of normalized error vs. equilibrium criterion $(\delta =\textbf  {u} \cdot \textbf  {n})$ for prolate deformation. The simulations are conducted on $N=50$, $60$ and $80$ marker points for $Ca_E=0.08$. \relax }}{10}{figure.caption.8}}
\newlabel{fig:norm_error_po}{{8}{10}{Comparison of normalized error vs. equilibrium criterion $(\delta =\textbf {u} \cdot \textbf {n})$ for prolate deformation. The simulations are conducted on $N=50$, $60$ and $80$ marker points for $Ca_E=0.08$. \relax }{figure.caption.8}{}}
\@writefile{toc}{\contentsline {section}{\numberline {3}Adjoint method for two-phase incompressible Navier-Stokes equations}{10}{section.3}}
\newlabel{NS_AM}{{3}{10}{Adjoint method for two-phase incompressible Navier-Stokes equations}{section.3}{}}
\newlabel{eq:navierstokes}{{27}{10}{Adjoint method for two-phase incompressible Navier-Stokes equations}{equation.3.27}{}}
\newlabel{eq:ns_jump}{{28}{10}{Adjoint method for two-phase incompressible Navier-Stokes equations}{equation.3.28}{}}
\newlabel{eq:lagrangian_jump}{{29}{11}{Adjoint method for two-phase incompressible Navier-Stokes equations}{equation.3.29}{}}
\newlabel{eq:adjoint_ns}{{30}{11}{Adjoint method for two-phase incompressible Navier-Stokes equations}{equation.3.30}{}}
\citation{Schmid_2010}
\newlabel{eq:adjoint_jump}{{31}{12}{Adjoint method for two-phase incompressible Navier-Stokes equations}{equation.3.31}{}}
\newlabel{eq:adjoint_marker}{{32}{12}{Adjoint method for two-phase incompressible Navier-Stokes equations}{equation.3.32}{}}
\@writefile{toc}{\contentsline {section}{\numberline {4}Towards Data-Driven Control of Multiphase Flows}{12}{section.4}}
\@writefile{toc}{\contentsline {subsection}{\numberline {4.1}Dynamic Mode Decomposition}{12}{subsection.4.1}}
\citation{Teo_1991}
\citation{Bagheri_2008}
\@writefile{toc}{\contentsline {subsection}{\numberline {4.2}Adjoint Method}{13}{subsection.4.2}}
\@writefile{toc}{\contentsline {subsection}{\numberline {4.3}Numerical Experiment}{13}{subsection.4.3}}
\citation{goulart2012optimal}
\citation{goulart2012optimal}
\citation{sashittal2018low}
\citation{sashittal2018low}
\@writefile{lof}{\contentsline {figure}{\numberline {9}{\ignorespaces The error in the gradient of the DMD-informed adjoint method measured with respect to the finite difference gradient. The colored lines indicate the number of modes associated with each DMD-based adjoint operator.\relax }}{14}{figure.caption.9}}
\newlabel{fig:DMD_grad_err}{{9}{14}{The error in the gradient of the DMD-informed adjoint method measured with respect to the finite difference gradient. The colored lines indicate the number of modes associated with each DMD-based adjoint operator.\relax }{figure.caption.9}{}}
\@writefile{toc}{\contentsline {subsection}{\numberline {4.4}Alternative formulation with improved model reduction}{14}{subsection.4.4}}
\newlabel{fig:cp_rank4}{{10a}{15}{Subfigure 10a}{subfigure.10.1}{}}
\newlabel{sub@fig:cp_rank4}{{(a)}{a}{Subfigure 10a\relax }{subfigure.10.1}{}}
\newlabel{fig:cp_rank9}{{10b}{15}{Subfigure 10b}{subfigure.10.2}{}}
\newlabel{sub@fig:cp_rank9}{{(b)}{b}{Subfigure 10b\relax }{subfigure.10.2}{}}
\@writefile{lof}{\contentsline {figure}{\numberline {10}{\ignorespaces The eigenvalues of controlled and uncontrolled dynamics using reduced order controllers for (a) rank $4$ and (b) rank $9$ approximation of the state transition matrix. The black border denotes a unit circle around the origin.\relax }}{15}{figure.caption.10}}
\newlabel{fig:control_performance}{{10}{15}{The eigenvalues of controlled and uncontrolled dynamics using reduced order controllers for (a) rank $4$ and (b) rank $9$ approximation of the state transition matrix. The black border denotes a unit circle around the origin.\relax }{figure.caption.10}{}}
\@writefile{lof}{\contentsline {subfigure}{\numberline{(a)}{\ignorespaces {}}}{15}{subfigure.10.1}}
\@writefile{lof}{\contentsline {subfigure}{\numberline{(b)}{\ignorespaces {}}}{15}{subfigure.10.2}}
\@writefile{toc}{\contentsline {section}{\numberline {5}Conclusions and Future Work}{15}{section.5}}
\bibstyle{unsrt}
\bibdata{reference}
\bibcite{Gunzburger_2000}{1}
\bibcite{Rallison_1984}{2}
\bibcite{Taylor_1934}{3}
\bibcite{Taylor_1932}{4}
\bibcite{Gallery}{5}
\bibcite{Schmid_2010}{6}
\@writefile{toc}{\contentsline {section}{\numberline {6}Acknowledgements}{16}{section.6}}
\bibcite{Stone_1994}{7}
\bibcite{Acrivos_1983}{8}
\bibcite{Melcher_1969}{9}
\bibcite{Pozrikidis_1992}{10}
\bibcite{Lac_2007}{11}
\bibcite{Stone_1989}{12}
\bibcite{Biesel_1973}{13}
\bibcite{Rallison_1978}{14}
\bibcite{Taylor_1966}{15}
\bibcite{Ajayi_1978}{16}
\bibcite{Teo_1991}{17}
\bibcite{Bagheri_2008}{18}
\bibcite{goulart2012optimal}{19}
\bibcite{sashittal2018low}{20}
